LSD/G2/pedrovt/Parte1/simulation/qsim/Dec2_4EnDemo.msim.vcd
$comment
	File created using the following command:
		vcd file Dec2_4EnDemo.msim.vcd -direction
$end
$date
	Tue Feb 21 17:10:08 2017
$end
$version
	ModelSim Version 10.4b
$end
$timescale
	1ps
$end

$scope module Dec2_4En_vlg_vec_tst $end
$var reg 1 ! enable $end
$var reg 2 " inputs [1:0] $end
$var wire 1 # outputs [3] $end
$var wire 1 $ outputs [2] $end
$var wire 1 % outputs [1] $end
$var wire 1 & outputs [0] $end

$scope module i1 $end
$var wire 1 ' gnd $end
$var wire 1 ( vcc $end
$var wire 1 ) unknown $end
$var tri1 1 * devclrn $end
$var tri1 1 + devpor $end
$var tri1 1 , devoe $end
$var wire 1 - outputs[0]~output_o $end
$var wire 1 . outputs[1]~output_o $end
$var wire 1 / outputs[2]~output_o $end
$var wire 1 0 outputs[3]~output_o $end
$var wire 1 1 enable~input_o $end
$var wire 1 2 inputs[1]~input_o $end
$var wire 1 3 inputs[0]~input_o $end
$var wire 1 4 outputs~0_combout $end
$var wire 1 5 outputs~1_combout $end
$var wire 1 6 outputs~2_combout $end
$var wire 1 7 outputs~3_combout $end
$upscope $end
$upscope $end
$enddefinitions $end
#0
$dumpvars
0!
b0 "
0&
0%
0$
0#
0'
1(
x)
1*
1+
1,
0-
0.
0/
00
01
02
03
04
05
06
07
$end
#10000
b1 "
13
#20000
b11 "
b10 "
03
12
#30000
b11 "
13
#40000
1!
b1 "
b0 "
11
03
02
14
1-
1&
#50000
b1 "
13
15
04
0-
1.
1%
0&
#60000
b11 "
b10 "
03
12
16
05
0.
1/
1$
0%
#70000
b11 "
13
17
06
0/
10
1#
0$
#80000
0!
b1 "
b0 "
01
03
02
07
00
0#
#90000
b1 "
13
#100000
b11 "
b10 "
03
12
#110000
b11 "
13
#120000
1!
b1 "
b0 "
11
03
02
14
1-
1&
#130000
b1 "
13
15
04
0-
1.
1%
0&
#140000
b11 "
b10 "
03
12
16
05
0.
1/
1$
0%
#150000
b11 "
13
17
06
0/
10
1#
0$
#160000
0!
b1 "
b0 "
01
03
02
07
00
0#
#170000
b1 "
13
#180000
b0 "
03
