LSD/G3/pedrovt/Parte1/simulation/qsim/AdderDemo.msim.vcd
$comment
	File created using the following command:
		vcd file AdderDemo.msim.vcd -direction
$end
$date
	Mon Feb 27 16:30:00 2017
$end
$version
	ModelSim Version 10.4b
$end
$timescale
	1ps
$end

$scope module AddSub4_vlg_vec_tst $end
$var reg 4 ! a [3:0] $end
$var reg 4 " b [3:0] $end
$var reg 1 # sub $end
$var wire 1 $ cout $end
$var wire 1 % s [3] $end
$var wire 1 & s [2] $end
$var wire 1 ' s [1] $end
$var wire 1 ( s [0] $end

$scope module i1 $end
$var wire 1 ) gnd $end
$var wire 1 * vcc $end
$var wire 1 + unknown $end
$var tri1 1 , devclrn $end
$var tri1 1 - devpor $end
$var tri1 1 . devoe $end
$var wire 1 / cout~output_o $end
$var wire 1 0 s[0]~output_o $end
$var wire 1 1 s[1]~output_o $end
$var wire 1 2 s[2]~output_o $end
$var wire 1 3 s[3]~output_o $end
$var wire 1 4 sub~input_o $end
$var wire 1 5 b[3]~input_o $end
$var wire 1 6 b[2]~input_o $end
$var wire 1 7 b[1]~input_o $end
$var wire 1 8 a[0]~input_o $end
$var wire 1 9 b[0]~input_o $end
$var wire 1 : add_4|bit0|cout~0_combout $end
$var wire 1 ; a[1]~input_o $end
$var wire 1 < add_4|bit1|cout~0_combout $end
$var wire 1 = a[2]~input_o $end
$var wire 1 > add_4|bit2|cout~0_combout $end
$var wire 1 ? a[3]~input_o $end
$var wire 1 @ add_4|bit3|cout~0_combout $end
$var wire 1 A add_4|bit0|s~0_combout $end
$var wire 1 B add_4|bit1|s~combout $end
$var wire 1 C add_4|bit2|s~0_combout $end
$var wire 1 D add_4|bit3|s~0_combout $end
$upscope $end
$upscope $end
$enddefinitions $end
#0
$dumpvars
b0 !
b0 "
0#
0$
0(
0'
0&
0%
0)
1*
x+
1,
1-
1.
0/
00
01
02
03
04
05
06
07
08
09
0:
0;
0<
0=
0>
0?
0@
0A
0B
0C
0D
$end
#10000
b1000 "
b1100 "
b1110 "
b1111 "
19
17
16
15
1A
1B
1C
1D
13
12
11
10
1(
1'
1&
1%
#60000
x#
bx000 !
bx00 !
bx0 !
bx !
bx111 "
bx11 "
bx1 "
bx "
x4
x9
x7
x6
x5
x8
x;
x=
x?
x>
x<
x:
xD
xC
xB
x@
xA
x0
x/
x1
x2
x3
x%
x&
x'
x$
x(
#80000
1#
b0xxx !
b0xx !
b0x !
b0 !
b1xxx "
b11xx "
b111x "
b1111 "
14
19
17
16
15
08
0;
0=
0?
0>
0<
0:
0@
1A
10
0/
0$
1(
0D
0C
0B
01
02
03
0%
0&
0'
#130000
x#
bx000 !
bx00 !
bx0 !
bx !
bx111 "
bx11 "
bx1 "
bx "
x4
x9
x7
x6
x5
x8
x;
x=
x?
x>
x<
x:
xD
xC
xB
x@
xA
x0
x/
x1
x2
x3
x%
x&
x'
x$
x(
#170000
1#
b1xxx !
b11xx !
b111x !
b1111 !
b1xxx "
b11xx "
b111x "
b1111 "
14
19
17
16
15
18
1;
1=
1?
1:
0A
00
1<
0(
0B
01
1>
0'
0C
02
0&
0D
1@
1/
03
0%
1$
#200000
b111 "
b11 "
b1 "
b0 "
09
07
06
05
1A
1B
1C
1D
13
12
11
10
1(
1'
1&
1%
#210000
b1000 "
b1100 "
b1110 "
b1111 "
19
17
16
15
0A
0B
0C
0D
03
02
01
00
0(
0'
0&
0%
#220000
x#
bx111 !
bx11 !
bx1 !
bx !
bx111 "
bx11 "
bx1 "
bx "
x4
x9
x7
x6
x5
x8
x;
x=
x?
x>
x<
x:
xD
xC
xB
x@
xA
x0
x/
x1
x2
x3
x%
x&
x'
x$
x(
#250000
0#
b1xxx !
b11xx !
b111x !
b1111 !
b0xxx "
b0xx "
b0x "
b0 "
04
09
07
06
05
18
1;
1=
1?
0:
1A
10
0<
1(
1B
11
0>
1'
1C
12
1&
1D
0@
0/
13
1%
0$
#270000
b111 !
b11 !
b1 !
b0 !
b1000 "
b1100 "
b1110 "
b1111 "
19
17
16
15
08
0;
0=
0?
#290000
x#
bx000 !
bx00 !
bx0 !
bx !
bx111 "
bx11 "
bx1 "
bx "
x4
x9
x7
x6
x5
x8
x;
x=
x?
x>
x<
x:
xD
xC
xB
x@
xA
x0
x/
x1
x2
x3
x%
x&
x'
x$
x(
#340000
1#
b1xxx !
b11xx !
b111x !
b1111 !
b0xxx "
b0xx "
b0x "
b0 "
14
09
07
06
05
18
1;
1=
1?
1>
1<
1:
1@
1A
10
1/
1$
1(
1D
1C
1B
11
12
13
1%
1&
1'
#360000
b111 !
b11 !
b1 !
b0 !
b1000 "
b1100 "
b1110 "
b1111 "
19
17
16
15
08
0;
0=
0?
0:
0<
0>
0@
0/
0$
0B
0C
0D
03
02
01
0'
0&
0%
#380000
x#
bx000 !
bx00 !
bx0 !
bx !
bx111 "
bx11 "
bx1 "
bx "
x4
x9
x7
x6
x5
x8
x;
x=
x?
x>
x<
x:
xD
xC
xB
x@
xA
x0
x/
x1
x2
x3
x%
x&
x'
x$
x(
#500000
0#
b0xxx !
b0xx !
b0x !
b0 !
b0xxx "
b0xx "
b0x "
b0 "
04
09
07
06
05
08
0;
0=
0?
0>
0<
0:
0@
0A
00
0/
0$
0(
0D
0C
0B
01
02
03
0%
0&
0'
