LSD/G4/pedrovt/Parte4/simulation/qsim/FreqDivider_Demo.msim.vcd
$comment
	File created using the following command:
		vcd file FreqDivider_Demo.msim.vcd -direction
$end
$date
	Mon Mar 06 18:31:25 2017
$end
$version
	ModelSim Version 10.4b
$end
$timescale
	1ps
$end

$scope module FreqDivider_vlg_vec_tst $end
$var reg 1 ! clkIn $end
$var reg 32 " k [31:0] $end
$var wire 1 # clkOut $end

$scope module i1 $end
$var wire 1 $ gnd $end
$var wire 1 % vcc $end
$var wire 1 & unknown $end
$var tri1 1 ' devclrn $end
$var tri1 1 ( devpor $end
$var tri1 1 ) devoe $end
$var wire 1 * clkOut~output_o $end
$var wire 1 + clkIn~input_o $end
$var wire 1 , k[1]~input_o $end
$var wire 1 - Add1~0_combout $end
$var wire 1 . k[2]~input_o $end
$var wire 1 / Add1~1 $end
$var wire 1 0 Add1~2_combout $end
$var wire 1 1 s_counter[0]~31_combout $end
$var wire 1 2 k[0]~input_o $end
$var wire 1 3 Add0~1 $end
$var wire 1 4 Add0~2_combout $end
$var wire 1 5 Add0~0_combout $end
$var wire 1 6 Equal0~0_combout $end
$var wire 1 7 s_counter[1]~34 $end
$var wire 1 8 s_counter[2]~35_combout $end
$var wire 1 9 s_counter[2]~36 $end
$var wire 1 : s_counter[3]~37_combout $end
$var wire 1 ; k[3]~input_o $end
$var wire 1 < Add0~3 $end
$var wire 1 = Add0~5 $end
$var wire 1 > Add0~6_combout $end
$var wire 1 ? Add0~4_combout $end
$var wire 1 @ Equal0~1_combout $end
$var wire 1 A s_counter[3]~38 $end
$var wire 1 B s_counter[4]~39_combout $end
$var wire 1 C s_counter[4]~40 $end
$var wire 1 D s_counter[5]~41_combout $end
$var wire 1 E k[5]~input_o $end
$var wire 1 F k[4]~input_o $end
$var wire 1 G Add0~7 $end
$var wire 1 H Add0~9 $end
$var wire 1 I Add0~10_combout $end
$var wire 1 J Add0~8_combout $end
$var wire 1 K Equal0~2_combout $end
$var wire 1 L s_counter[5]~42 $end
$var wire 1 M s_counter[6]~43_combout $end
$var wire 1 N s_counter[6]~44 $end
$var wire 1 O s_counter[7]~45_combout $end
$var wire 1 P k[7]~input_o $end
$var wire 1 Q k[6]~input_o $end
$var wire 1 R Add0~11 $end
$var wire 1 S Add0~13 $end
$var wire 1 T Add0~14_combout $end
$var wire 1 U Add0~12_combout $end
$var wire 1 V Equal0~3_combout $end
$var wire 1 W Equal0~4_combout $end
$var wire 1 X s_counter[7]~46 $end
$var wire 1 Y s_counter[8]~47_combout $end
$var wire 1 Z s_counter[8]~48 $end
$var wire 1 [ s_counter[9]~49_combout $end
$var wire 1 \ k[9]~input_o $end
$var wire 1 ] k[8]~input_o $end
$var wire 1 ^ Add0~15 $end
$var wire 1 _ Add0~17 $end
$var wire 1 ` Add0~18_combout $end
$var wire 1 a Add0~16_combout $end
$var wire 1 b Equal0~5_combout $end
$var wire 1 c s_counter[9]~50 $end
$var wire 1 d s_counter[10]~51_combout $end
$var wire 1 e s_counter[10]~52 $end
$var wire 1 f s_counter[11]~53_combout $end
$var wire 1 g k[11]~input_o $end
$var wire 1 h k[10]~input_o $end
$var wire 1 i Add0~19 $end
$var wire 1 j Add0~21 $end
$var wire 1 k Add0~22_combout $end
$var wire 1 l Add0~20_combout $end
$var wire 1 m Equal0~6_combout $end
$var wire 1 n s_counter[11]~54 $end
$var wire 1 o s_counter[12]~55_combout $end
$var wire 1 p s_counter[12]~56 $end
$var wire 1 q s_counter[13]~57_combout $end
$var wire 1 r k[13]~input_o $end
$var wire 1 s k[12]~input_o $end
$var wire 1 t Add0~23 $end
$var wire 1 u Add0~25 $end
$var wire 1 v Add0~26_combout $end
$var wire 1 w Add0~24_combout $end
$var wire 1 x Equal0~7_combout $end
$var wire 1 y s_counter[13]~58 $end
$var wire 1 z s_counter[14]~59_combout $end
$var wire 1 { s_counter[14]~60 $end
$var wire 1 | s_counter[15]~61_combout $end
$var wire 1 } k[15]~input_o $end
$var wire 1 ~ k[14]~input_o $end
$var wire 1 !! Add0~27 $end
$var wire 1 "! Add0~29 $end
$var wire 1 #! Add0~30_combout $end
$var wire 1 $! Add0~28_combout $end
$var wire 1 %! Equal0~8_combout $end
$var wire 1 &! Equal0~9_combout $end
$var wire 1 '! s_counter[15]~62 $end
$var wire 1 (! s_counter[16]~63_combout $end
$var wire 1 )! s_counter[16]~64 $end
$var wire 1 *! s_counter[17]~65_combout $end
$var wire 1 +! k[17]~input_o $end
$var wire 1 ,! k[16]~input_o $end
$var wire 1 -! Add0~31 $end
$var wire 1 .! Add0~33 $end
$var wire 1 /! Add0~34_combout $end
$var wire 1 0! Add0~32_combout $end
$var wire 1 1! Equal0~10_combout $end
$var wire 1 2! s_counter[17]~66 $end
$var wire 1 3! s_counter[18]~67_combout $end
$var wire 1 4! s_counter[18]~68 $end
$var wire 1 5! s_counter[19]~69_combout $end
$var wire 1 6! k[19]~input_o $end
$var wire 1 7! k[18]~input_o $end
$var wire 1 8! Add0~35 $end
$var wire 1 9! Add0~37 $end
$var wire 1 :! Add0~38_combout $end
$var wire 1 ;! Add0~36_combout $end
$var wire 1 <! Equal0~11_combout $end
$var wire 1 =! s_counter[19]~70 $end
$var wire 1 >! s_counter[20]~71_combout $end
$var wire 1 ?! s_counter[20]~72 $end
$var wire 1 @! s_counter[21]~73_combout $end
$var wire 1 A! k[21]~input_o $end
$var wire 1 B! k[20]~input_o $end
$var wire 1 C! Add0~39 $end
$var wire 1 D! Add0~41 $end
$var wire 1 E! Add0~42_combout $end
$var wire 1 F! Add0~40_combout $end
$var wire 1 G! Equal0~12_combout $end
$var wire 1 H! s_counter[21]~74 $end
$var wire 1 I! s_counter[22]~75_combout $end
$var wire 1 J! s_counter[22]~76 $end
$var wire 1 K! s_counter[23]~77_combout $end
$var wire 1 L! k[23]~input_o $end
$var wire 1 M! k[22]~input_o $end
$var wire 1 N! Add0~43 $end
$var wire 1 O! Add0~45 $end
$var wire 1 P! Add0~46_combout $end
$var wire 1 Q! Add0~44_combout $end
$var wire 1 R! Equal0~13_combout $end
$var wire 1 S! Equal0~14_combout $end
$var wire 1 T! s_counter[23]~78 $end
$var wire 1 U! s_counter[24]~79_combout $end
$var wire 1 V! s_counter[24]~80 $end
$var wire 1 W! s_counter[25]~81_combout $end
$var wire 1 X! k[25]~input_o $end
$var wire 1 Y! k[24]~input_o $end
$var wire 1 Z! Add0~47 $end
$var wire 1 [! Add0~49 $end
$var wire 1 \! Add0~50_combout $end
$var wire 1 ]! Add0~48_combout $end
$var wire 1 ^! Equal0~15_combout $end
$var wire 1 _! s_counter[25]~82 $end
$var wire 1 `! s_counter[26]~83_combout $end
$var wire 1 a! s_counter[26]~84 $end
$var wire 1 b! s_counter[27]~85_combout $end
$var wire 1 c! k[27]~input_o $end
$var wire 1 d! k[26]~input_o $end
$var wire 1 e! Add0~51 $end
$var wire 1 f! Add0~53 $end
$var wire 1 g! Add0~54_combout $end
$var wire 1 h! Add0~52_combout $end
$var wire 1 i! Equal0~16_combout $end
$var wire 1 j! s_counter[27]~86 $end
$var wire 1 k! s_counter[28]~87_combout $end
$var wire 1 l! s_counter[28]~88 $end
$var wire 1 m! s_counter[29]~89_combout $end
$var wire 1 n! k[29]~input_o $end
$var wire 1 o! k[28]~input_o $end
$var wire 1 p! Add0~55 $end
$var wire 1 q! Add0~57 $end
$var wire 1 r! Add0~58_combout $end
$var wire 1 s! Add0~56_combout $end
$var wire 1 t! Equal0~17_combout $end
$var wire 1 u! s_counter[29]~90 $end
$var wire 1 v! s_counter[30]~91_combout $end
$var wire 1 w! k[30]~input_o $end
$var wire 1 x! Add0~59 $end
$var wire 1 y! Add0~60_combout $end
$var wire 1 z! k[31]~input_o $end
$var wire 1 {! Add0~61 $end
$var wire 1 |! Add0~62_combout $end
$var wire 1 }! Equal0~18_combout $end
$var wire 1 ~! Equal0~19_combout $end
$var wire 1 !" Equal0~20_combout $end
$var wire 1 "" s_counter[0]~32 $end
$var wire 1 #" s_counter[1]~33_combout $end
$var wire 1 $" clkOut~0_combout $end
$var wire 1 %" Add1~3 $end
$var wire 1 &" Add1~4_combout $end
$var wire 1 '" Add1~5 $end
$var wire 1 (" Add1~6_combout $end
$var wire 1 )" clkOut~1_combout $end
$var wire 1 *" Add1~7 $end
$var wire 1 +" Add1~8_combout $end
$var wire 1 ," Add1~9 $end
$var wire 1 -" Add1~10_combout $end
$var wire 1 ." clkOut~2_combout $end
$var wire 1 /" Add1~11 $end
$var wire 1 0" Add1~12_combout $end
$var wire 1 1" Add1~13 $end
$var wire 1 2" Add1~14_combout $end
$var wire 1 3" clkOut~3_combout $end
$var wire 1 4" clkOut~4_combout $end
$var wire 1 5" Add1~15 $end
$var wire 1 6" Add1~16_combout $end
$var wire 1 7" Add1~17 $end
$var wire 1 8" Add1~18_combout $end
$var wire 1 9" clkOut~5_combout $end
$var wire 1 :" Add1~19 $end
$var wire 1 ;" Add1~21 $end
$var wire 1 <" Add1~22_combout $end
$var wire 1 =" Add1~20_combout $end
$var wire 1 >" Equal1~0_combout $end
$var wire 1 ?" clkOut~6_combout $end
$var wire 1 @" Add1~23 $end
$var wire 1 A" Add1~24_combout $end
$var wire 1 B" Add1~25 $end
$var wire 1 C" Add1~26_combout $end
$var wire 1 D" clkOut~7_combout $end
$var wire 1 E" Add1~27 $end
$var wire 1 F" Add1~28_combout $end
$var wire 1 G" Add1~29 $end
$var wire 1 H" Add1~30_combout $end
$var wire 1 I" clkOut~8_combout $end
$var wire 1 J" clkOut~9_combout $end
$var wire 1 K" Add1~31 $end
$var wire 1 L" Add1~32_combout $end
$var wire 1 M" Add1~33 $end
$var wire 1 N" Add1~34_combout $end
$var wire 1 O" clkOut~10_combout $end
$var wire 1 P" Add1~35 $end
$var wire 1 Q" Add1~36_combout $end
$var wire 1 R" Add1~37 $end
$var wire 1 S" Add1~38_combout $end
$var wire 1 T" clkOut~11_combout $end
$var wire 1 U" Add1~39 $end
$var wire 1 V" Add1~40_combout $end
$var wire 1 W" Add1~41 $end
$var wire 1 X" Add1~42_combout $end
$var wire 1 Y" clkOut~12_combout $end
$var wire 1 Z" Add1~43 $end
$var wire 1 [" Add1~44_combout $end
$var wire 1 \" Add1~45 $end
$var wire 1 ]" Add1~46_combout $end
$var wire 1 ^" clkOut~13_combout $end
$var wire 1 _" clkOut~14_combout $end
$var wire 1 `" Add1~47 $end
$var wire 1 a" Add1~48_combout $end
$var wire 1 b" Add1~49 $end
$var wire 1 c" Add1~50_combout $end
$var wire 1 d" clkOut~15_combout $end
$var wire 1 e" Add1~51 $end
$var wire 1 f" Add1~52_combout $end
$var wire 1 g" Add1~53 $end
$var wire 1 h" Add1~54_combout $end
$var wire 1 i" clkOut~16_combout $end
$var wire 1 j" Add1~55 $end
$var wire 1 k" Add1~56_combout $end
$var wire 1 l" Add1~57 $end
$var wire 1 m" Add1~58_combout $end
$var wire 1 n" clkOut~17_combout $end
$var wire 1 o" Add1~59 $end
$var wire 1 p" Add1~60_combout $end
$var wire 1 q" Add1~61 $end
$var wire 1 r" Add1~62_combout $end
$var wire 1 s" clkOut~18_combout $end
$var wire 1 t" clkOut~19_combout $end
$var wire 1 u" clkOut~20_combout $end
$var wire 1 v" clkOut~reg0_q $end
$var wire 1 w" s_counter [30] $end
$var wire 1 x" s_counter [29] $end
$var wire 1 y" s_counter [28] $end
$var wire 1 z" s_counter [27] $end
$var wire 1 {" s_counter [26] $end
$var wire 1 |" s_counter [25] $end
$var wire 1 }" s_counter [24] $end
$var wire 1 ~" s_counter [23] $end
$var wire 1 !# s_counter [22] $end
$var wire 1 "# s_counter [21] $end
$var wire 1 ## s_counter [20] $end
$var wire 1 $# s_counter [19] $end
$var wire 1 %# s_counter [18] $end
$var wire 1 &# s_counter [17] $end
$var wire 1 '# s_counter [16] $end
$var wire 1 (# s_counter [15] $end
$var wire 1 )# s_counter [14] $end
$var wire 1 *# s_counter [13] $end
$var wire 1 +# s_counter [12] $end
$var wire 1 ,# s_counter [11] $end
$var wire 1 -# s_counter [10] $end
$var wire 1 .# s_counter [9] $end
$var wire 1 /# s_counter [8] $end
$var wire 1 0# s_counter [7] $end
$var wire 1 1# s_counter [6] $end
$var wire 1 2# s_counter [5] $end
$var wire 1 3# s_counter [4] $end
$var wire 1 4# s_counter [3] $end
$var wire 1 5# s_counter [2] $end
$var wire 1 6# s_counter [1] $end
$var wire 1 7# s_counter [0] $end
$upscope $end
$upscope $end
$enddefinitions $end
#0
$dumpvars
0!
b101 "
0#
0$
1%
x&
1'
1(
1)
0*
0+
0,
1-
1.
0/
00
11
12
13
04
05
16
17
08
09
0:
0;
0<
1=
0>
1?
0@
1A
0B
0C
0D
0E
0F
0G
1H
0I
0J
1K
1L
0M
0N
0O
0P
0Q
0R
1S
0T
0U
1V
0W
1X
0Y
0Z
0[
0\
0]
0^
1_
0`
0a
1b
1c
0d
0e
0f
0g
0h
0i
1j
0k
0l
1m
1n
0o
0p
0q
0r
0s
0t
1u
0v
0w
1x
1y
0z
0{
0|
0}
0~
0!!
1"!
0#!
0$!
1%!
1&!
1'!
0(!
0)!
0*!
0+!
0,!
0-!
1.!
0/!
00!
11!
12!
03!
04!
05!
06!
07!
08!
19!
0:!
0;!
1<!
1=!
0>!
0?!
0@!
0A!
0B!
0C!
1D!
0E!
0F!
1G!
1H!
0I!
0J!
0K!
0L!
0M!
0N!
1O!
0P!
0Q!
1R!
1S!
1T!
0U!
0V!
0W!
0X!
0Y!
0Z!
1[!
0\!
0]!
1^!
1_!
0`!
0a!
0b!
0c!
0d!
0e!
1f!
0g!
0h!
1i!
1j!
0k!
0l!
0m!
0n!
0o!
0p!
1q!
0r!
0s!
1t!
1u!
0v!
0w!
0x!
0y!
0z!
1{!
0|!
1}!
1~!
0!"
0""
0#"
0$"
0%"
0&"
1'"
0("
1)"
0*"
0+"
1,"
0-"
1."
0/"
00"
11"
02"
13"
04"
05"
06"
17"
08"
19"
0:"
1;"
0<"
0="
0>"
1?"
0@"
0A"
1B"
0C"
1D"
0E"
0F"
1G"
0H"
1I"
0J"
0K"
0L"
1M"
0N"
1O"
0P"
0Q"
1R"
0S"
1T"
0U"
0V"
1W"
0X"
1Y"
0Z"
0["
1\"
0]"
1^"
1_"
0`"
0a"
1b"
0c"
1d"
0e"
0f"
1g"
0h"
1i"
0j"
0k"
1l"
0m"
1n"
0o"
0p"
1q"
0r"
1s"
1t"
0u"
0v"
07#
06#
05#
04#
03#
02#
01#
00#
0/#
0.#
0-#
0,#
0+#
0*#
0)#
0(#
0'#
0&#
0%#
0$#
0##
0"#
0!#
0~"
0}"
0|"
0{"
0z"
0y"
0x"
0w"
$end
#10000
1!
1+
17#
1$"
06
1""
01
14"
1#"
1J"
1u"
#20000
0!
0+
#30000
1!
1+
16#
07#
1v"
1*
0$"
07
0""
1#
0#"
11
04"
17
18
1#"
0J"
08
#40000
0!
0+
#50000
1!
1+
17#
1""
01
07
0#"
18
#60000
0!
0+
#70000
1!
1+
06#
07#
15#
17
16
0""
0)"
1@
19
1#"
11
08
09
1W
18
0#"
1:
1!"
0:
0u"
#80000
0!
0+
#90000
1!
1+
05#
0v"
0*
1)"
0@
0#
08
0W
0!"
#100000
0!
0+
#110000
1!
1+
17#
1$"
06
1""
01
14"
1#"
1J"
1u"
#120000
0!
0+
#130000
1!
1+
16#
07#
1v"
1*
0$"
07
0""
1#
0#"
11
04"
17
18
1#"
0J"
08
#140000
0!
0+
#150000
1!
1+
17#
1""
01
07
0#"
18
#160000
0!
0+
#170000
1!
1+
06#
07#
15#
17
16
0""
0)"
1@
19
1#"
11
08
09
1W
18
0#"
1:
1!"
0:
0u"
#180000
0!
0+
#190000
1!
1+
05#
0v"
0*
1)"
0@
0#
08
0W
0!"
#200000
0!
0+
#210000
1!
1+
17#
1$"
06
1""
01
14"
1#"
1J"
1u"
#220000
0!
0+
#230000
1!
1+
16#
07#
1v"
1*
0$"
07
0""
1#
0#"
11
04"
17
18
1#"
0J"
08
#240000
0!
0+
#250000
1!
1+
17#
1""
01
07
0#"
18
#260000
0!
0+
#270000
1!
1+
06#
07#
15#
17
16
0""
0)"
1@
19
1#"
11
08
09
1W
18
0#"
1:
1!"
0:
0u"
#280000
0!
0+
#290000
1!
1+
05#
0v"
0*
1)"
0@
0#
08
0W
0!"
#300000
0!
0+
#310000
1!
1+
17#
1$"
06
1""
01
14"
1#"
1J"
1u"
#320000
0!
0+
#330000
1!
1+
16#
07#
1v"
1*
0$"
07
0""
1#
0#"
11
04"
17
18
1#"
0J"
08
#340000
0!
0+
#350000
1!
1+
17#
1""
01
07
0#"
18
#360000
0!
0+
#370000
1!
1+
06#
07#
15#
17
16
0""
0)"
1@
19
1#"
11
08
09
1W
18
0#"
1:
1!"
0:
0u"
#380000
0!
0+
#390000
1!
1+
05#
0v"
0*
1)"
0@
0#
08
0W
0!"
#400000
0!
0+
#410000
1!
1+
17#
1$"
06
1""
01
14"
1#"
1J"
1u"
#420000
0!
0+
#430000
1!
1+
16#
07#
1v"
1*
0$"
07
0""
1#
0#"
11
04"
17
18
1#"
0J"
08
#440000
0!
0+
#450000
1!
1+
17#
1""
01
07
0#"
18
#460000
0!
0+
#470000
1!
1+
06#
07#
15#
17
16
0""
0)"
1@
19
1#"
11
08
09
1W
18
0#"
1:
1!"
0:
0u"
#480000
0!
0+
#490000
1!
1+
05#
0v"
0*
1)"
0@
0#
08
0W
0!"
#500000
0!
0+
#510000
1!
1+
17#
1$"
06
1""
01
14"
1#"
1J"
1u"
#520000
0!
0+
#530000
1!
1+
16#
07#
1v"
1*
0$"
07
0""
1#
0#"
11
04"
17
18
1#"
0J"
08
#540000
0!
0+
#550000
1!
1+
17#
1""
01
07
0#"
18
#560000
0!
0+
#570000
1!
1+
06#
07#
15#
17
16
0""
0)"
1@
19
1#"
11
08
09
1W
18
0#"
1:
1!"
0:
0u"
#580000
0!
0+
#590000
1!
1+
05#
0v"
0*
1)"
0@
0#
08
0W
0!"
#600000
0!
0+
#610000
1!
1+
17#
1$"
06
1""
01
14"
1#"
1J"
1u"
#620000
0!
0+
#630000
1!
1+
16#
07#
1v"
1*
0$"
07
0""
1#
0#"
11
04"
17
18
1#"
0J"
08
#640000
0!
0+
#650000
1!
1+
17#
1""
01
07
0#"
18
#660000
0!
0+
#670000
1!
1+
06#
07#
15#
17
16
0""
0)"
1@
19
1#"
11
08
09
1W
18
0#"
1:
1!"
0:
0u"
#680000
0!
0+
#690000
1!
1+
05#
0v"
0*
1)"
0@
0#
08
0W
0!"
#700000
0!
0+
#710000
1!
1+
17#
1$"
06
1""
01
14"
1#"
1J"
1u"
#720000
0!
0+
#730000
1!
1+
16#
07#
1v"
1*
0$"
07
0""
1#
0#"
11
04"
17
18
1#"
0J"
08
#740000
0!
0+
#750000
1!
1+
17#
1""
01
07
0#"
18
#760000
0!
0+
#770000
1!
1+
06#
07#
15#
17
16
0""
0)"
1@
19
1#"
11
08
09
1W
18
0#"
1:
1!"
0:
0u"
#780000
0!
0+
#790000
1!
1+
05#
0v"
0*
1)"
0@
0#
08
0W
0!"
#800000
0!
0+
#810000
1!
1+
17#
1$"
06
1""
01
14"
1#"
1J"
1u"
#820000
0!
0+
#830000
1!
1+
16#
07#
1v"
1*
0$"
07
0""
1#
0#"
11
04"
17
18
1#"
0J"
08
#840000
0!
0+
#850000
1!
1+
17#
1""
01
07
0#"
18
#860000
0!
0+
#870000
1!
1+
06#
07#
15#
17
16
0""
0)"
1@
19
1#"
11
08
09
1W
18
0#"
1:
1!"
0:
0u"
#880000
0!
0+
#890000
1!
1+
05#
0v"
0*
1)"
0@
0#
08
0W
0!"
#900000
0!
0+
#910000
1!
1+
17#
1$"
06
1""
01
14"
1#"
1J"
1u"
#920000
0!
0+
#930000
1!
1+
16#
07#
1v"
1*
0$"
07
0""
1#
0#"
11
04"
17
18
1#"
0J"
08
#940000
0!
0+
#950000
1!
1+
17#
1""
01
07
0#"
18
#960000
0!
0+
#970000
1!
1+
06#
07#
15#
17
16
0""
0)"
1@
19
1#"
11
08
09
1W
18
0#"
1:
1!"
0:
0u"
#980000
0!
0+
#990000
1!
1+
05#
0v"
0*
1)"
0@
0#
08
0W
0!"
