LSD/G3/bea/ALUDemo/simulation/qsim/ALUDemo.msim.vcd
$comment
	File created using the following command:
		vcd file ALUDemo.msim.vcd -direction
$end
$date
	Sun Feb 26 23:36:50 2017
$end
$version
	ModelSim Version 10.4b
$end
$timescale
	1ps
$end

$scope module Bin2BCD_vlg_vec_tst $end
$var reg 4 ! bin [3:0] $end
$var wire 1 " bcd [7] $end
$var wire 1 # bcd [6] $end
$var wire 1 $ bcd [5] $end
$var wire 1 % bcd [4] $end
$var wire 1 & bcd [3] $end
$var wire 1 ' bcd [2] $end
$var wire 1 ( bcd [1] $end
$var wire 1 ) bcd [0] $end

$scope module i1 $end
$var wire 1 * gnd $end
$var wire 1 + vcc $end
$var wire 1 , unknown $end
$var tri1 1 - devclrn $end
$var tri1 1 . devpor $end
$var tri1 1 / devoe $end
$var wire 1 0 bcd[0]~output_o $end
$var wire 1 1 bcd[1]~output_o $end
$var wire 1 2 bcd[2]~output_o $end
$var wire 1 3 bcd[3]~output_o $end
$var wire 1 4 bcd[4]~output_o $end
$var wire 1 5 bcd[5]~output_o $end
$var wire 1 6 bcd[6]~output_o $end
$var wire 1 7 bcd[7]~output_o $end
$var wire 1 8 bin[0]~input_o $end
$var wire 1 9 bin[1]~input_o $end
$var wire 1 : bin[3]~input_o $end
$var wire 1 ; bin[2]~input_o $end
$var wire 1 < bcd~0_combout $end
$var wire 1 = bcd~1_combout $end
$var wire 1 > bcd~2_combout $end
$var wire 1 ? bcd~3_combout $end
$upscope $end
$upscope $end
$enddefinitions $end
#0
$dumpvars
b0 !
0)
0(
0'
0&
0%
0$
0#
0"
0*
1+
x,
1-
1.
1/
00
01
02
03
04
05
06
07
08
09
0:
0;
0<
0=
0>
0?
$end
#50000
b1 !
18
10
1)
#100000
b11 !
b10 !
19
08
00
0)
1<
11
1(
#150000
b11 !
18
10
1)
#200000
b111 !
b101 !
b100 !
09
1;
08
00
0)
1=
0<
01
12
1'
0(
#250000
b101 !
18
10
1)
#300000
b111 !
b110 !
19
08
00
0)
1<
11
1(
#350000
b111 !
18
10
1)
#400000
b1111 !
b1011 !
b1001 !
b1000 !
09
0;
1:
08
00
0)
1>
0=
0<
01
02
13
1&
0'
0(
#450000
b1001 !
18
10
1)
#500000
b1011 !
b1010 !
19
08
00
0)
1?
0>
03
14
1%
0&
#550000
b1011 !
18
10
1)
#600000
b1111 !
b1101 !
b1100 !
09
1;
08
00
0)
1<
11
1(
#650000
b1101 !
18
10
1)
#700000
b1111 !
b1110 !
19
08
00
0)
1=
0<
01
12
1'
0(
#750000
b1111 !
18
10
1)
#800000
b111 !
b11 !
b1 !
b0 !
09
0;
0:
08
00
0)
0?
0=
02
04
0%
0'
#850000
b1 !
18
10
1)
#900000
b11 !
b10 !
19
08
00
0)
1<
11
1(
#950000
b11 !
18
10
1)
