LSD/G1/pedrovt/Parte1/simulation/qsim/GateDemo.msim.vcd
$comment
	File created using the following command:
		vcd file GateDemo.msim.vcd -direction
$end
$date
	Tue Feb 14 17:01:13 2017
$end
$version
	ModelSim Version 10.4b
$end
$timescale
	1ps
$end

$scope module GateDemo_vlg_vec_tst $end
$var reg 2 ! SW [1:0] $end
$var wire 1 " LEDR [0] $end

$scope module i1 $end
$var wire 1 # gnd $end
$var wire 1 $ vcc $end
$var wire 1 % unknown $end
$var tri1 1 & devclrn $end
$var tri1 1 ' devpor $end
$var tri1 1 ( devoe $end
$var wire 1 ) LEDR[0]~output_o $end
$var wire 1 * SW[1]~input_o $end
$var wire 1 + SW[0]~input_o $end
$var wire 1 , AND2_1~combout $end
$upscope $end
$upscope $end
$enddefinitions $end
#0
$dumpvars
b0 !
0"
0#
1$
x%
1&
1'
1(
0)
0*
0+
0,
$end
#80000
b1 !
1+
#220000
b0 !
0+
#260000
b10 !
1*
#360000
b0 !
0*
#420000
b1 !
1+
#520000
b11 !
1*
1,
1)
1"
#640000
b1 !
0*
0,
0)
0"
#760000
b0 !
0+
#820000
b10 !
b11 !
1+
1*
1,
1)
1"
#880000
b1 !
b0 !
0+
0*
0,
0)
0"
#900000
b10 !
1*
#920000
b11 !
1+
1,
1)
1"
#980000
b10 !
0+
0,
0)
0"
