LSD/G4/bea/Counter_Demo/simulation/qsim/Counter_Demo.msim.vcd
$comment
	File created using the following command:
		vcd file Counter_Demo.msim.vcd -direction
$end
$date
	Sun Mar 05 18:30:57 2017
$end
$version
	ModelSim Version 10.4b
$end
$timescale
	1ps
$end

$scope module CounterLoadUpDown4_vlg_vec_tst $end
$var reg 1 ! clk $end
$var reg 4 " dataIn [3:0] $end
$var reg 1 # enable $end
$var reg 1 $ load $end
$var reg 1 % reset $end
$var reg 1 & upDown $end
$var wire 1 ' count [3] $end
$var wire 1 ( count [2] $end
$var wire 1 ) count [1] $end
$var wire 1 * count [0] $end

$scope module i1 $end
$var wire 1 + gnd $end
$var wire 1 , vcc $end
$var wire 1 - unknown $end
$var tri1 1 . devclrn $end
$var tri1 1 / devpor $end
$var tri1 1 0 devoe $end
$var wire 1 1 count[0]~output_o $end
$var wire 1 2 count[1]~output_o $end
$var wire 1 3 count[2]~output_o $end
$var wire 1 4 count[3]~output_o $end
$var wire 1 5 clk~input_o $end
$var wire 1 6 clk~inputclkctrl_outclk $end
$var wire 1 7 reset~input_o $end
$var wire 1 8 enable~input_o $end
$var wire 1 9 load~input_o $end
$var wire 1 : dataIn[0]~input_o $end
$var wire 1 ; s_count~2_combout $end
$var wire 1 < s_count~3_combout $end
$var wire 1 = dataIn[1]~input_o $end
$var wire 1 > upDown~input_o $end
$var wire 1 ? s_count~4_combout $end
$var wire 1 @ s_count~5_combout $end
$var wire 1 A s_count~6_combout $end
$var wire 1 B Add0~0_combout $end
$var wire 1 C Add0~1_combout $end
$var wire 1 D s_count[2]~8_cout $end
$var wire 1 E s_count[2]~10_cout $end
$var wire 1 F s_count[2]~11_combout $end
$var wire 1 G dataIn[2]~input_o $end
$var wire 1 H s_count~13_combout $end
$var wire 1 I s_count[2]~12 $end
$var wire 1 J s_count[3]~14_combout $end
$var wire 1 K dataIn[3]~input_o $end
$var wire 1 L s_count [3] $end
$var wire 1 M s_count [2] $end
$var wire 1 N s_count [1] $end
$var wire 1 O s_count [0] $end
$upscope $end
$upscope $end
$enddefinitions $end
#0
$dumpvars
0!
b110 "
1#
0$
0%
0&
0*
0)
0(
0'
0+
1,
x-
1.
1/
10
01
02
03
04
05
06
07
18
09
0:
1;
1<
1=
0>
0?
0@
0A
0B
0C
0D
1E
0F
1G
1H
0I
0J
0K
0O
0N
0M
0L
$end
#20000
1!
15
16
1O
11
1B
1?
0;
1*
1@
0<
1A
#40000
0!
05
06
#60000
1!
15
16
1N
0O
01
12
0E
0B
0?
1;
1)
0*
0A
1E
0@
1F
1<
0F
1A
#80000
0!
05
06
#100000
1!
15
16
1O
11
1B
1?
0;
1*
0E
1@
0<
1F
0A
#120000
0!
05
06
#140000
1!
15
16
1M
0N
0O
01
02
13
1I
1E
0B
0?
1;
1(
0)
0*
0F
1A
0I
0@
1J
1F
1<
0J
0A
#160000
1%
0!
17
05
06
0<
#180000
1!
15
16
0M
03
0(
0F
#190000
0%
07
1<
#200000
0!
05
06
#220000
1!
15
16
1O
11
1B
1?
0;
1*
1@
0<
1A
#240000
0!
05
06
#250000
1$
19
#260000
1!
15
16
1M
1N
0O
01
12
13
0E
0@
0B
0?
1(
1)
0*
1F
0A
1I
1E
0F
1A
0I
1J
1F
0J
#270000
0$
09
1;
1<
#280000
0!
05
06
#300000
1!
15
16
1O
11
1B
1?
0;
1*
0E
1@
0<
1I
0F
0A
1J
#320000
0!
05
06
#340000
1!
15
16
1L
0M
0N
0O
01
02
03
14
0I
1E
0B
0?
1;
1'
0(
0)
0*
0J
1F
1A
0@
1J
0F
1<
0A
#360000
0!
05
06
#370000
1$
19
1@
0;
1A
0<
#380000
1!
15
16
0L
1M
1N
12
13
04
0@
0'
1(
1)
0J
1F
0A
1A
#400000
0!
05
06
#420000
1!
15
16
#440000
0$
0!
09
05
06
1;
1<
#460000
1!
15
16
1O
11
1B
1?
0;
1*
0E
1@
0<
1I
0F
0A
1J
#480000
0!
05
06
#490000
1&
1>
1C
0?
0J
1F
1D
0@
1A
#500000
1!
15
16
0O
01
0C
1?
1;
0*
0D
1@
1<
0A
#520000
0!
05
06
#540000
1!
15
16
0N
1O
11
02
1E
1C
0?
0;
0)
1*
1A
1D
0@
0F
0<
0E
0A
1F
#560000
0!
05
06
#580000
1!
15
16
0O
01
0C
1?
1;
0*
0D
1@
1<
1E
1A
0F
#600000
0!
05
06
#620000
1!
15
16
0M
1N
1O
11
12
03
0I
0E
1C
0?
0;
0(
1)
1*
1F
0A
1I
1D
0@
1J
0F
0<
0J
1A
#640000
0!
05
06
#660000
1!
15
16
0O
01
0C
1?
1;
0*
0D
1@
1<
0A
#680000
0!
05
06
#690000
1%
17
0<
#700000
1!
15
16
0N
02
1E
0)
0I
1F
1J
#720000
0!
05
06
#730000
0&
0>
0B
0?
0J
0F
0@
#740000
0%
1!
07
15
16
1<
#760000
0!
05
06
#780000
1!
15
16
1O
11
1B
1?
0;
1*
1@
0<
1A
#800000
0!
05
06
#820000
1!
15
16
1N
0O
01
12
0E
0B
0?
1;
1)
0*
0A
1E
0@
1F
1<
0F
1A
#840000
0!
05
06
#850000
1$
19
0;
0<
#860000
1!
15
16
1M
13
1(
1F
#880000
0!
05
06
#890000
0#
0$
08
09
0H
1;
#900000
1!
15
16
#920000
0!
05
06
#940000
1!
15
16
#960000
0!
05
06
#980000
1!
15
16
