LSD/G4/pedrovt/TPC2/simulation/qsim/LatchD_Demo.msim.vcd
$comment
	File created using the following command:
		vcd file LatchD_Demo.msim.vcd -direction
$end
$date
	Mon Mar 06 19:36:44 2017
$end
$version
	ModelSim Version 10.4b
$end
$timescale
	1ps
$end

$scope module LatchD_vlg_vec_tst $end
$var reg 1 ! dataIn $end
$var reg 1 " enable $end
$var wire 1 # dataOut $end

$scope module i1 $end
$var wire 1 $ gnd $end
$var wire 1 % vcc $end
$var wire 1 & unknown $end
$var tri1 1 ' devclrn $end
$var tri1 1 ( devpor $end
$var tri1 1 ) devoe $end
$var wire 1 * dataOut~output_o $end
$var wire 1 + dataIn~input_o $end
$var wire 1 , enable~input_o $end
$var wire 1 - dataOut$latch~combout $end
$upscope $end
$upscope $end
$enddefinitions $end
#0
$dumpvars
0!
0"
x#
0$
1%
x&
1'
1(
1)
x*
0+
0,
x-
$end
#10000
1!
1+
#20000
1"
1,
1-
1*
1#
#40000
0"
0,
#50000
0!
0+
#60000
1"
1!
1,
1+
#70000
0!
0+
0-
0*
0#
#80000
0"
1!
0,
1+
#90000
0!
0+
#100000
1"
1!
1,
1+
1-
1*
1#
#120000
0"
0!
0,
0+
#140000
1"
1!
1,
1+
#160000
0"
0,
#180000
1"
1,
#200000
0!
0"
0+
0,
#220000
1!
1"
1+
1,
#240000
0!
0"
0+
0,
#260000
1"
1,
0-
0*
0#
#270000
1!
1+
1-
1*
1#
#280000
0"
0!
0,
0+
#300000
1"
1,
0-
0*
0#
#310000
1!
1+
1-
1*
1#
#320000
0"
0!
0,
0+
#330000
1!
1+
#340000
1"
1,
#360000
0!
0"
0+
0,
#370000
1!
1+
#380000
1"
0!
1,
0+
0-
0*
0#
#390000
1!
1+
1-
1*
1#
#400000
0"
0,
#420000
1"
1,
#440000
0!
0"
0+
0,
#450000
1!
1+
#460000
1"
0!
1,
0+
0-
0*
0#
#470000
1!
1+
1-
1*
1#
#480000
0"
0!
0,
0+
#490000
1!
1+
#500000
1"
0!
1,
0+
0-
0*
0#
#510000
1!
1+
1-
1*
1#
#520000
0"
0,
#530000
0!
0+
#540000
1"
1!
1,
1+
#560000
0"
0!
0,
0+
#580000
1"
1,
0-
0*
0#
#590000
1!
1+
1-
1*
1#
#600000
0"
0!
0,
0+
#620000
1"
1,
0-
0*
0#
#630000
1!
1+
1-
1*
1#
#640000
0"
0!
0,
0+
#650000
1!
1+
#660000
1"
1,
#670000
0!
0+
0-
0*
0#
#680000
0"
1!
0,
1+
#700000
1"
1,
1-
1*
1#
#710000
0!
0+
0-
0*
0#
#720000
0"
0,
#730000
1!
1+
#740000
1"
0!
1,
0+
#750000
1!
1+
1-
1*
1#
#760000
0"
0!
0,
0+
#770000
1!
1+
#780000
1"
0!
1,
0+
0-
0*
0#
#790000
1!
1+
1-
1*
1#
#800000
0"
0,
#820000
0!
1"
0+
1,
0-
0*
0#
#840000
0"
0,
#860000
1"
1,
#880000
1!
0"
1+
0,
#900000
1"
1,
1-
1*
1#
#910000
0!
0+
0-
0*
0#
#920000
0"
1!
0,
1+
#940000
1"
1,
1-
1*
1#
#950000
0!
0+
0-
0*
0#
#960000
0"
1!
0,
1+
#970000
0!
0+
#980000
1"
1!
1,
1+
1-
1*
1#
