LSD/G4/luis/Parte2/simulation/qsim/Register_Demo.msim.vcd
$comment
	File created using the following command:
		vcd file Register_Demo.msim.vcd -direction
$end
$date
	Fri Mar 03 19:06:46 2017
$end
$version
	ModelSim Version 10.4b
$end
$timescale
	1ps
$end

$scope module Register8_vlg_vec_tst $end
$var reg 1 ! clk $end
$var reg 8 " d [7:0] $end
$var reg 1 # reset $end
$var reg 1 $ set $end
$var wire 1 % q [7] $end
$var wire 1 & q [6] $end
$var wire 1 ' q [5] $end
$var wire 1 ( q [4] $end
$var wire 1 ) q [3] $end
$var wire 1 * q [2] $end
$var wire 1 + q [1] $end
$var wire 1 , q [0] $end

$scope module i1 $end
$var wire 1 - gnd $end
$var wire 1 . vcc $end
$var wire 1 / unknown $end
$var tri1 1 0 devclrn $end
$var tri1 1 1 devpor $end
$var tri1 1 2 devoe $end
$var wire 1 3 q[0]~output_o $end
$var wire 1 4 q[1]~output_o $end
$var wire 1 5 q[2]~output_o $end
$var wire 1 6 q[3]~output_o $end
$var wire 1 7 q[4]~output_o $end
$var wire 1 8 q[5]~output_o $end
$var wire 1 9 q[6]~output_o $end
$var wire 1 : q[7]~output_o $end
$var wire 1 ; clk~input_o $end
$var wire 1 < d[0]~input_o $end
$var wire 1 = set~input_o $end
$var wire 1 > reset~input_o $end
$var wire 1 ? q[7]~19_combout $end
$var wire 1 @ q[0]~1_combout $end
$var wire 1 A q[0]~3_combout $end
$var wire 1 B q[0]~0_combout $end
$var wire 1 C q[0]~reg0_emulated_q $end
$var wire 1 D q[0]~2_combout $end
$var wire 1 E d[1]~input_o $end
$var wire 1 F q[1]~5_combout $end
$var wire 1 G q[1]~reg0_emulated_q $end
$var wire 1 H q[1]~4_combout $end
$var wire 1 I d[2]~input_o $end
$var wire 1 J q[2]~7_combout $end
$var wire 1 K q[2]~reg0_emulated_q $end
$var wire 1 L q[2]~6_combout $end
$var wire 1 M d[3]~input_o $end
$var wire 1 N q[3]~9_combout $end
$var wire 1 O q[3]~reg0_emulated_q $end
$var wire 1 P q[3]~8_combout $end
$var wire 1 Q d[4]~input_o $end
$var wire 1 R q[4]~11_combout $end
$var wire 1 S q[4]~reg0_emulated_q $end
$var wire 1 T q[4]~10_combout $end
$var wire 1 U d[5]~input_o $end
$var wire 1 V q[5]~13_combout $end
$var wire 1 W q[5]~reg0_emulated_q $end
$var wire 1 X q[5]~12_combout $end
$var wire 1 Y d[6]~input_o $end
$var wire 1 Z q[6]~15_combout $end
$var wire 1 [ q[6]~reg0_emulated_q $end
$var wire 1 \ q[6]~14_combout $end
$var wire 1 ] d[7]~input_o $end
$var wire 1 ^ q[7]~17_combout $end
$var wire 1 _ q[7]~reg0_emulated_q $end
$var wire 1 ` q[7]~16_combout $end
$upscope $end
$upscope $end
$enddefinitions $end
#0
$dumpvars
1!
b11011001 "
1#
1$
0,
0+
0*
0)
0(
0'
0&
0%
0-
1.
x/
10
11
12
03
04
05
06
07
08
09
0:
1;
1<
1=
1>
0?
0@
1A
1B
0C
0D
0E
0F
0G
0H
0I
0J
0K
0L
1M
1N
0O
0P
1Q
1R
0S
0T
0U
0V
0W
0X
1Y
1Z
0[
0\
1]
1^
0_
0`
$end
#25000
0!
0;
#50000
0#
1!
0>
1;
0B
1?
1B
1@
1`
1\
1X
1T
1P
1L
1H
1D
13
14
15
16
17
18
19
1:
1%
1&
1'
1(
1)
1*
1+
1,
0^
0Z
1V
0R
0N
1J
1F
0A
#100000
b11001001 "
b11000001 "
b11000101 "
b11000111 "
1E
1I
0M
0Q
0F
0J
1N
1R
#150000
1#
1>
0@
0?
0`
0\
0X
0T
0P
0L
0H
0D
03
04
05
06
07
08
09
0:
0%
0&
0'
0(
0)
0*
0+
0,
1^
1Z
0V
0R
0N
1J
1F
1A
#200000
0$
b11100111 "
b11100110 "
0!
b11101110 "
b11101100 "
0#
0=
0<
0E
1M
1U
0>
0;
0B
0A
0F
1N
1V
#220000
1!
1;
1_
1[
1W
1O
1K
1`
1\
1X
1P
1L
15
16
18
19
1:
1%
1&
1'
1)
1*
#250000
1#
1>
1B
0`
0\
0X
0P
0L
05
06
08
09
0:
0%
0&
0'
0)
0*
0K
0O
0W
0[
0_
#300000
b1101100 "
b1111100 "
b1111000 "
b1011000 "
b1011001 "
1<
0I
1Q
0U
0]
1A
0J
1R
0V
0^
#350000
1$
0#
1=
0>
1?
0B
1B
1@
1`
1\
1X
1T
1P
1L
1H
1D
13
14
15
16
17
18
19
1:
1%
1&
1'
1(
1)
1*
1+
1,
1^
0Z
1V
0R
0N
1J
1F
0A
#375000
0!
0;
#400000
b11001 "
b11011 "
b1011 "
0$
1!
1E
0Q
0Y
0=
1;
0?
0F
1R
1Z
0B
#425000
0!
0;
#430000
1!
1;
1_
1[
1W
1S
1K
0`
0\
0X
0T
0L
05
07
08
09
0:
0%
0&
0'
0(
0*
#450000
1$
1=
1?
1B
1`
1\
1X
1T
1L
15
17
18
19
1:
1%
1&
1'
1(
1*
0K
0S
0W
0[
0_
#460000
0!
0;
#500000
b11 "
b111 "
b100111 "
b100110 "
1#
b100100 "
b110100 "
0$
0<
0E
1I
0M
1Q
1U
1>
0=
0@
0?
1A
1F
0J
1N
0R
0V
0`
0\
0X
0T
0P
0L
0H
0D
03
04
05
06
07
08
09
0:
0%
0&
0'
0(
0)
0*
0+
0,
0^
0Z
1V
1R
0N
1J
0F
0A
#525000
1!
1;
#550000
0#
0!
0>
0;
0B
#575000
1!
1;
1W
1S
1K
1X
1T
1L
15
17
18
1'
1(
1*
#600000
b10110100 "
b11110100 "
b11110000 "
b11010000 "
b11010001 "
b11010011 "
1#
0!
1<
1E
0I
0U
1Y
1]
1>
0;
1B
1A
1F
0J
0V
1Z
1^
0X
0T
0L
05
07
08
0'
0(
0*
0K
0S
0W
#650000
1$
1=
#675000
1!
1;
#700000
b11000011 "
b11100011 "
b11100010 "
0#
0<
0Q
1U
0>
0B
1?
0A
0R
1V
1B
1@
1`
1\
1X
1T
1P
1L
1H
1D
13
14
15
16
17
18
19
1:
1%
1&
1'
1(
1)
1*
1+
1,
0^
0Z
0V
1R
1N
1J
0F
1A
#725000
0!
0;
#750000
1#
1!
1>
1;
0@
0?
0`
0\
0X
0T
0P
0L
0H
0D
03
04
05
06
07
08
09
0:
0%
0&
0'
0(
0)
0*
0+
0,
1^
1Z
1V
0R
0N
0J
1F
0A
#800000
b11101010 "
b1101010 "
b101010 "
b101110 "
b101100 "
b1100 "
b1101 "
1<
0E
1I
1M
0U
0Y
0]
1A
0F
1J
1N
0V
0Z
0^
#850000
0$
0#
0!
0=
0>
0;
0B
#880000
1!
1;
1O
1K
1C
1P
1L
1D
13
15
16
1)
1*
1,
#900000
b101 "
b1 "
b11 "
1$
1#
1E
0I
0M
1=
1>
1B
1F
0J
0N
0P
0L
0D
03
05
06
0)
0*
0,
0C
0K
0O
#925000
0!
0;
#950000
1!
1;
