LSD/G4/pedrovt/Parte1/simulation/qsim/FlipFlopD_Demo.msim.vcd
$comment
	File created using the following command:
		vcd file FlipFlopD_Demo.msim.vcd -direction
$end
$date
	Mon Mar 06 14:32:35 2017
$end
$version
	ModelSim Version 10.4b
$end
$timescale
	1ps
$end

$scope module FlipFlopD_vlg_vec_tst $end
$var reg 1 ! clk $end
$var reg 1 " d $end
$var reg 1 # reset $end
$var reg 1 $ set $end
$var wire 1 % q $end

$scope module i1 $end
$var wire 1 & gnd $end
$var wire 1 ' vcc $end
$var wire 1 ( unknown $end
$var tri1 1 ) devclrn $end
$var tri1 1 * devpor $end
$var tri1 1 + devoe $end
$var wire 1 , q~output_o $end
$var wire 1 - clk~input_o $end
$var wire 1 . d~input_o $end
$var wire 1 / set~input_o $end
$var wire 1 0 reset~input_o $end
$var wire 1 1 q~0_combout $end
$var wire 1 2 q~reg0_q $end
$upscope $end
$upscope $end
$enddefinitions $end
#0
$dumpvars
1!
0"
0#
0$
0%
0&
1'
x(
1)
1*
1+
0,
1-
0.
0/
00
01
02
$end
#10000
0!
1$
1/
0-
11
#20000
1!
1-
12
1,
1%
#30000
0!
0-
#40000
1!
1-
#50000
0!
0-
#60000
0$
1!
0/
1-
01
#70000
0!
0-
#80000
1!
1-
02
0,
0%
#90000
0!
0-
#100000
1!
1-
#110000
0!
0-
#120000
1"
1!
1.
1-
11
#130000
0!
0-
#140000
1!
1-
12
1,
1%
#150000
0!
0-
#160000
1!
1-
#170000
0!
0-
#180000
1!
1-
#190000
0!
0-
#200000
1!
1-
#210000
0!
0-
#220000
1!
1-
#230000
0!
0-
#240000
0"
1!
0.
1-
01
#250000
1"
0!
1.
0-
11
#260000
1!
1-
#270000
0!
0-
#280000
1#
1!
10
1-
01
#290000
0!
0-
#300000
1!
1-
02
0,
0%
#310000
0!
0-
#320000
1!
1-
#330000
0#
0!
00
0-
11
#340000
1!
1-
12
1,
1%
#350000
0!
0-
#360000
0"
1!
0.
1-
01
#370000
0!
0-
#380000
1"
1!
1.
1-
11
02
0,
0%
#390000
0!
0-
#400000
1!
1-
12
1,
1%
#410000
0!
0-
#420000
1!
1-
#430000
0!
0-
#440000
1!
1-
#450000
0!
0-
#460000
1!
1-
#470000
0!
0-
#480000
1!
1-
#490000
0"
0!
0.
0-
01
#500000
1!
1-
02
0,
0%
#510000
0!
0-
#520000
1!
1-
#530000
0!
0-
#540000
1!
1-
#550000
0!
0-
#560000
1!
1-
#570000
0!
0-
#580000
1!
1-
#590000
0!
0-
#600000
1!
1-
#610000
0!
0-
#620000
1!
1-
#630000
0!
0-
#640000
1!
1-
#650000
0!
0-
#660000
1!
1-
#670000
0!
0-
#680000
1!
1-
#690000
0!
0-
#700000
1!
1-
#710000
0!
0-
#720000
1!
1-
#730000
0!
0-
#740000
1!
1-
#750000
0!
0-
#760000
1!
1-
#770000
0!
0-
#780000
1!
1-
#790000
0!
0-
#800000
1!
1-
#810000
0!
0-
#820000
1!
1-
#830000
0!
0-
#840000
1!
1-
#850000
0!
0-
#860000
1!
1-
#870000
0!
0-
#880000
1!
1-
#890000
0!
0-
#900000
1!
1-
#910000
0!
0-
#920000
1!
1-
#930000
0!
0-
#940000
1!
1-
#950000
0!
0-
#960000
1!
1-
#970000
0!
0-
#980000
1!
1-
#990000
0!
0-
