LuisMoura/LSD/Ficha2/Parte1/simulation/qsim/Dec2_4EnDemo.msim.vcd
$comment
	File created using the following command:
		vcd file Dec2_4EnDemo.msim.vcd -direction
$end
$date
	Sun Feb 19 12:16:22 2017
$end
$version
	ModelSim Version 10.4b
$end
$timescale
	1ps
$end

$scope module Dec2_4En_vlg_vec_tst $end
$var reg 1 ! enable $end
$var reg 2 " inputs [1:0] $end
$var wire 1 # outputs [3] $end
$var wire 1 $ outputs [2] $end
$var wire 1 % outputs [1] $end
$var wire 1 & outputs [0] $end

$scope module i1 $end
$var wire 1 ' gnd $end
$var wire 1 ( vcc $end
$var wire 1 ) unknown $end
$var tri1 1 * devclrn $end
$var tri1 1 + devpor $end
$var tri1 1 , devoe $end
$var wire 1 - outputs[0]~output_o $end
$var wire 1 . outputs[1]~output_o $end
$var wire 1 / outputs[2]~output_o $end
$var wire 1 0 outputs[3]~output_o $end
$var wire 1 1 enable~input_o $end
$var wire 1 2 inputs[1]~input_o $end
$var wire 1 3 inputs[0]~input_o $end
$var wire 1 4 outputs~0_combout $end
$var wire 1 5 outputs~1_combout $end
$var wire 1 6 outputs~2_combout $end
$var wire 1 7 outputs~3_combout $end
$upscope $end
$upscope $end
$enddefinitions $end
#0
$dumpvars
0!
b10 "
0&
0%
0$
0#
0'
1(
x)
1*
1+
1,
0-
0.
0/
00
01
12
03
04
05
06
07
$end
#40000
b0 "
b1 "
13
02
#80000
b11 "
12
#120000
1!
b10 "
11
03
16
1/
1$
#160000
b0 "
02
06
14
1-
0/
0$
1&
#240000
b1 "
b11 "
13
12
17
04
0-
10
1#
0&
#280000
b1 "
02
07
15
1.
00
0#
1%
#320000
b0 "
03
05
14
1-
0.
0%
1&
#400000
b10 "
12
16
04
0-
1/
1$
0&
#440000
b0 "
02
06
14
1-
0/
0$
1&
#560000
b1 "
b11 "
13
12
17
04
0-
10
1#
0&
#600000
b10 "
b0 "
03
02
07
14
1-
00
0#
1&
#680000
b10 "
12
16
04
0-
1/
1$
0&
#800000
b11 "
b1 "
13
02
06
15
1.
0/
0$
1%
#880000
0!
b11 "
01
12
05
0.
0%
#960000
b1 "
02
